{
	"info": {
		"_postman_id": "a3b1dd3f-68bf-4038-8d50-cbed7db44544",
		"name": "RESTaurant Menu",
		"description": "Sample API for WI scanning, showing both Basic and OAuth authentication.\n\nContact Support:\n Name: Demo Creator\n Email: noreply@widemo.xyz",
		"schema": "https://schema.getpostman.com/json/collection/v2.1.0/collection.json"
	},
	"item": [
		{
			"name": "menu/{type}",
			"item": [
				{
					"name": "get",
					"request": {
						"method": "GET",
						"header": [],
						"url": {
							"raw": "{{baseUrl}}/menu/:type",
							"host": [
								"{{baseUrl}}"
							],
							"path": [
								"menu",
								":type"
							],
							"variable": [
								{
									"key": "type",
									"value": "EatIn",
									"description": "(Required) Selects between the Eat-In and Take-Out menus"
								}
							]
						}
					},
					"response": [
						{
							"name": "OK",
							"originalRequest": {
								"method": "GET",
								"header": [
									{
										"description": "Added as a part of security scheme: oauth2",
										"key": "Authorization",
										"value": "<token>"
									}
								],
								"url": {
									"raw": "{{baseUrl}}/menu/:type",
									"host": [
										"{{baseUrl}}"
									],
									"path": [
										"menu",
										":type"
									],
									"variable": [
										{
											"key": "type"
										}
									]
								}
							},
							"status": "OK",
							"code": 200,
							"_postman_previewlanguage": "text",
							"header": [
								{
									"key": "Content-Type",
									"value": "*/*"
								}
							],
							"cookie": [],
							"body": ""
						},
						{
							"name": "Unauthorized. Provide HTTP Basic credentials or an OAuth2 token.",
							"originalRequest": {
								"method": "GET",
								"header": [
									{
										"description": "Added as a part of security scheme: oauth2",
										"key": "Authorization",
										"value": "<token>"
									}
								],
								"url": {
									"raw": "{{baseUrl}}/menu/:type",
									"host": [
										"{{baseUrl}}"
									],
									"path": [
										"menu",
										":type"
									],
									"variable": [
										{
											"key": "type"
										}
									]
								}
							},
							"status": "Unauthorized",
							"code": 401,
							"_postman_previewlanguage": "text",
							"header": [
								{
									"key": "Content-Type",
									"value": "text/plain"
								}
							],
							"cookie": [],
							"body": ""
						},
						{
							"name": "Internal server error.",
							"originalRequest": {
								"method": "GET",
								"header": [
									{
										"description": "Added as a part of security scheme: oauth2",
										"key": "Authorization",
										"value": "<token>"
									}
								],
								"url": {
									"raw": "{{baseUrl}}/menu/:type",
									"host": [
										"{{baseUrl}}"
									],
									"path": [
										"menu",
										":type"
									],
									"variable": [
										{
											"key": "type"
										}
									]
								}
							},
							"status": "Internal Server Error",
							"code": 500,
							"_postman_previewlanguage": "text",
							"header": [
								{
									"key": "Content-Type",
									"value": "text/plain"
								}
							],
							"cookie": [],
							"body": ""
						}
					]
				},
				{
					"name": "add",
					"request": {
						"method": "POST",
						"header": [
							{
								"key": "Content-Type",
								"value": "application/json"
							}
						],
						"body": {
							"mode": "raw",
							"raw": "{\n    \"name\": \"hamburger\",\n    \"price\": 12.34\n}"
						},
						"url": {
							"raw": "{{baseUrl}}/menu/:type",
							"host": [
								"{{baseUrl}}"
							],
							"path": [
								"menu",
								":type"
							],
							"variable": [
								{
									"key": "type",
									"value": "EatIn",
									"description": "(Required) Selects between the Eat-In and Take-Out menus"
								}
							]
						}
					},
					"response": [
						{
							"name": "Internal server error.",
							"originalRequest": {
								"method": "POST",
								"header": [
									{
										"description": "Added as a part of security scheme: oauth2",
										"key": "Authorization",
										"value": "<token>"
									}
								],
								"body": {
									"mode": "raw",
									"raw": "{\n    \"name\": \"hamburger\",\n    \"price\": 12.34\n}"
								},
								"url": {
									"raw": "{{baseUrl}}/menu/:type",
									"host": [
										"{{baseUrl}}"
									],
									"path": [
										"menu",
										":type"
									],
									"variable": [
										{
											"key": "type"
										}
									]
								}
							},
							"status": "Internal Server Error",
							"code": 500,
							"_postman_previewlanguage": "text",
							"header": [
								{
									"key": "Content-Type",
									"value": "text/plain"
								}
							],
							"cookie": [],
							"body": ""
						},
						{
							"name": "OK",
							"originalRequest": {
								"method": "POST",
								"header": [
									{
										"description": "Added as a part of security scheme: oauth2",
										"key": "Authorization",
										"value": "<token>"
									}
								],
								"body": {
									"mode": "raw",
									"raw": "{\n    \"name\": \"hamburger\",\n    \"price\": 12.34\n}"
								},
								"url": {
									"raw": "{{baseUrl}}/menu/:type",
									"host": [
										"{{baseUrl}}"
									],
									"path": [
										"menu",
										":type"
									],
									"variable": [
										{
											"key": "type"
										}
									]
								}
							},
							"status": "OK",
							"code": 200,
							"_postman_previewlanguage": "text",
							"header": [
								{
									"key": "Content-Type",
									"value": "text/plain"
								}
							],
							"cookie": [],
							"body": ""
						},
						{
							"name": "Unauthorized. Provide HTTP Basic credentials or an OAuth2 token.",
							"originalRequest": {
								"method": "POST",
								"header": [
									{
										"description": "Added as a part of security scheme: oauth2",
										"key": "Authorization",
										"value": "<token>"
									}
								],
								"body": {
									"mode": "raw",
									"raw": "{\n    \"name\": \"hamburger\",\n    \"price\": 12.34\n}"
								},
								"url": {
									"raw": "{{baseUrl}}/menu/:type",
									"host": [
										"{{baseUrl}}"
									],
									"path": [
										"menu",
										":type"
									],
									"variable": [
										{
											"key": "type"
										}
									]
								}
							},
							"status": "Unauthorized",
							"code": 401,
							"_postman_previewlanguage": "text",
							"header": [
								{
									"key": "Content-Type",
									"value": "text/plain"
								}
							],
							"cookie": [],
							"body": ""
						}
					]
				}
			]
		}
	],
	"auth": {
		"type": "basic",
		"basic": [
			{
				"key": "password",
				"value": "",
				"type": "string"
			},
			{
				"key": "username",
				"value": "",
				"type": "string"
			}
		]
	},
	"event": [
		{
			"listen": "prerequest",
			"script": {
				"type": "text/javascript",
				"exec": [
					""
				]
			}
		},
		{
			"listen": "test",
			"script": {
				"type": "text/javascript",
				"exec": [
					""
				]
			}
		}
	],
	"variable": [
		{
			"key": "baseUrl",
			"value": "https://restaurant.widemo.xyz"
		}
	]
}