{
	"info": {
		"_postman_id": "d1186dbb-a398-4079-b4fb-98a5fb3e11bf",
		"name": "OAuth2 Login",
		"schema": "https://schema.getpostman.com/json/collection/v2.1.0/collection.json"
	},
	"item": [
		{
			"name": "Login",
			"request": {
				"auth": {
					"type": "basic",
					"basic": [
						{
							"key": "password",
							"value": "f0ad752c-4be7-4819-b062-d4b55057c82e",
							"type": "string"
						},
						{
							"key": "username",
							"value": "restaurant",
							"type": "string"
						}
					]
				},
				"method": "POST",
				"header": [],
				"body": {
					"mode": "urlencoded",
					"urlencoded": [
						{
							"key": "grant_type",
							"value": "password",
							"type": "text"
						},
						{
							"key": "username",
							"value": "user1",
							"type": "text"
						},
						{
							"key": "password",
							"value": "pwd",
							"type": "text"
						}
					]
				},
				"url": {
					"raw": "https://keycloak.widemo.xyz/auth/realms/demorealm/protocol/openid-connect/token",
					"protocol": "https",
					"host": [
						"keycloak",
						"widemo",
						"xyz"
					],
					"path": [
						"auth",
						"realms",
						"demorealm",
						"protocol",
						"openid-connect",
						"token"
					]
				}
			},
			"response": []
		}
	]
}